/home/vinit/Desktop/Beehyv/Web development in Java/vintysite/src/main/java/com/ecomm/spring/model/User.java
/home/vinit/Desktop/Beehyv/Web development in Java/vintysite/src/main/java/com/ecomm/spring/model/Product.java
/home/vinit/Desktop/Beehyv/Web development in Java/vintysite/src/main/java/com/ecomm/spring/config/WebConfig.java
/home/vinit/Desktop/Beehyv/Web development in Java/vintysite/src/main/java/com/ecomm/dao/UserDAOImpl.java
/home/vinit/Desktop/Beehyv/Web development in Java/vintysite/src/main/java/com/ecomm/spring/service/CartServiceImpl.java
/home/vinit/Desktop/Beehyv/Web development in Java/vintysite/src/main/java/com/ecomm/spring/controller/ProductController.java
/home/vinit/Desktop/Beehyv/Web development in Java/vintysite/src/main/java/com/ecomm/spring/service/CartService.java
/home/vinit/Desktop/Beehyv/Web development in Java/vintysite/src/main/java/com/ecomm/dao/ProductDAOimpl.java
/home/vinit/Desktop/Beehyv/Web development in Java/vintysite/src/main/java/com/ecomm/dao/UserDAO.java
/home/vinit/Desktop/Beehyv/Web development in Java/vintysite/src/main/java/com/ecomm/spring/controller/UserController.java
/home/vinit/Desktop/Beehyv/Web development in Java/vintysite/src/main/java/com/ecomm/spring/model/Cart.java
/home/vinit/Desktop/Beehyv/Web development in Java/vintysite/src/main/java/com/ecomm/dao/ProductDAO.java
/home/vinit/Desktop/Beehyv/Web development in Java/vintysite/src/main/java/com/ecomm/spring/service/UserService.java
/home/vinit/Desktop/Beehyv/Web development in Java/vintysite/src/main/java/com/ecomm/spring/config/AppConfig.java
/home/vinit/Desktop/Beehyv/Web development in Java/vintysite/src/main/java/com/ecomm/dao/CartDAO.java
/home/vinit/Desktop/Beehyv/Web development in Java/vintysite/src/main/java/com/ecomm/spring/service/ProductService.java
/home/vinit/Desktop/Beehyv/Web development in Java/vintysite/src/main/java/com/ecomm/spring/service/ProductServiceimpl.java
/home/vinit/Desktop/Beehyv/Web development in Java/vintysite/src/main/java/com/ecomm/spring/service/UserServiceImpl.java
/home/vinit/Desktop/Beehyv/Web development in Java/vintysite/src/main/java/com/ecomm/spring/controller/CartController.java
/home/vinit/Desktop/Beehyv/Web development in Java/vintysite/src/main/java/com/ecomm/spring/config/MyWebAppInitializer.java
/home/vinit/Desktop/Beehyv/Web development in Java/vintysite/src/main/java/com/ecomm/dao/CartDAOImpl.java
